# Host tree root-to-leaf span was rescaled from 0.9999 to 1.0.
#  Starting MCMC with the following settings:
#  100 MCMC iterations, saving every 25 iteration.
#  SubstModel5: CacheSubstitutionModel: Substitution likelihood is performed using sequence data:
#    SequenceType Amino acid; Size: 9 sequence, 276 characters
#      partitions, any user-defined partitions of the data
#  and substitution matrix:
#      Markov transition rate matrix, JTT
#      It is a function of the (symmetric) intrinsic rate matrix, R, (20*20, not shown)
#      and, the stationary distribution/base frequencies, Pi, (20*20, not shown)
#      EdgeWeights reads edgeWeights directly from the tree
#      Tree
#  suggestRatio is 0 for 0 parameters
#  Prior:
#      Alpha: The rates are constant over the tree (Mol. clock).
#      The rate probabilities are modeled using a 
#      Uniform distribution in the interval [0, 3].
#      p =  -1.09861
#      The mean  is fixed to 1.5.
#      The variance is fixed to 0.75.
#      The edge rates are fixed to: 
#      edgeRate[0]	1.5
#      .
#      suggestRatio is 0 for 0 parameters
#      Prior:
#          Tree_weights3: The rate probabilities are modeled using a 
#          Gamma distribution, G(4, 5.0486)
#          The edge weights  are estimated during analysis.
#          suggestRatio is 0.695652 for 16 parameters
#          Prior:
#              Density2: Gamma distribution, G(4, 5.0486)
#              Mean and CV is perturbed during MCMC.
#              suggestRatio is 0.285714 for 2 parameters
#              Prior:
#                  Tree_Model1: Probability of guest tree Tree is uniform over all rooted trees with 9 leaves,
#                  or perhaps modeled elsewhere
#                  The gene tree  and its root is perturbed (NNI) during MCMC-analysis.
#                  suggestRatio is 0.818182 for 3 parameters
#                  Prior:
#                      DupLoss0: Birth and death parameters are estimated during MCMC.
#                      suggestRatio is 1 for 2 parameters
#                      Prior:
#                          No prior
#                  
#  
#
# L N SubstModel5.substLike(logfloat);	Tree_weights3.EdgeWeightLike(logfloat);	Tree_weights3.Tree_Lengths(tree);	Density2.mean(float);	Density2.variance(float);	Tree_Model1.Tree(tree); DupLoss0.birthRate(float);	DupLoss0.deathRate(float);	
-4311.48	0	-4208.59;	-101.795;	((CG9675-PA:0.05[&&PRIME ID=0], dana_GLEAN_11018:0.05[&&PRIME ID=1]):0.05[&&PRIME ID=15], (((dere_GLEAN_03260:0.05[&&PRIME ID=2], dyak_GLEAN_20149:0.05[&&PRIME ID=8]):0.05[&&PRIME ID=12], (dgri_GLEAN_20980:0.05[&&PRIME ID=3], (dmoj_GLEAN_21035:0.05[&&PRIME ID=4], dwil_GLEAN_17706:0.05[&&PRIME ID=7]):0.05[&&PRIME ID=10]):0.05[&&PRIME ID=11]):0.05[&&PRIME ID=13], (dpse_GLEAN_13408:0.05[&&PRIME ID=5], dvir_GLEAN_03818:0.05[&&PRIME ID=6]):0.05[&&PRIME ID=9]):0.05[&&PRIME ID=14]):0.05[&&PRIME ID=16];	0.792298;	0.156934;	((CG9675-PA, dana_GLEAN_11018), (((dere_GLEAN_03260, dyak_GLEAN_20149), (dgri_GLEAN_20980, (dmoj_GLEAN_21035, dwil_GLEAN_17706))), (dpse_GLEAN_13408, dvir_GLEAN_03818)));	1;	1;	
-4093.4	25	-4044.57;	-47.7336;	((((CG9675-PA:0.116449[&&PRIME ID=0], dana_GLEAN_11018:0.0978633[&&PRIME ID=1]):0.111927[&&PRIME ID=15], (dere_GLEAN_03260:0.05[&&PRIME ID=2], dyak_GLEAN_20149:0.0798832[&&PRIME ID=8]):0.0847112[&&PRIME ID=12]):0.05[&&PRIME ID=13], (dgri_GLEAN_20980:0.05[&&PRIME ID=3], (dmoj_GLEAN_21035:0.05[&&PRIME ID=4], dwil_GLEAN_17706:0.234172[&&PRIME ID=7]):0.05[&&PRIME ID=10]):0.0657216[&&PRIME ID=11]):0.030584[&&PRIME ID=14], (dpse_GLEAN_13408:0.05[&&PRIME ID=5], dvir_GLEAN_03818:0.05[&&PRIME ID=6]):0.030584[&&PRIME ID=9]):0.05[&&PRIME ID=16];	0.735665;	0.33533;	((((CG9675-PA, dana_GLEAN_11018), (dere_GLEAN_03260, dyak_GLEAN_20149)), (dgri_GLEAN_20980, (dmoj_GLEAN_21035, dwil_GLEAN_17706))), (dpse_GLEAN_13408, dvir_GLEAN_03818));	1;	2.5939;	
-4002.21	50	-3954.08;	-47.0239;	(((((CG9675-PA:0.116449[&&PRIME ID=0], dana_GLEAN_11018:0.103833[&&PRIME ID=1]):0.111927[&&PRIME ID=15], (dere_GLEAN_03260:0.067422[&&PRIME ID=2], dyak_GLEAN_20149:0.0798832[&&PRIME ID=8]):0.0845067[&&PRIME ID=12]):0.05[&&PRIME ID=13], (dpse_GLEAN_13408:0.080584[&&PRIME ID=5], dvir_GLEAN_03818:0.226288[&&PRIME ID=6]):0.0363877[&&PRIME ID=9]):0.0583882[&&PRIME ID=14], (dmoj_GLEAN_21035:0.05[&&PRIME ID=4], dwil_GLEAN_17706:0.513006[&&PRIME ID=7]):0.0428977[&&PRIME ID=10]):0.0491829[&&PRIME ID=11], dgri_GLEAN_20980:0.0491829[&&PRIME ID=3]):0.05[&&PRIME ID=16];	0.600067;	0.223106;	(((((CG9675-PA, dana_GLEAN_11018), (dere_GLEAN_03260, dyak_GLEAN_20149)), (dpse_GLEAN_13408, dvir_GLEAN_03818)), (dmoj_GLEAN_21035, dwil_GLEAN_17706)), dgri_GLEAN_20980);	1;	2.44479;	
-3921.4	75	-3862.71;	-57.5919;	(((((((CG9675-PA:0.120762[&&PRIME ID=0], (dere_GLEAN_03260:0.067422[&&PRIME ID=2], dyak_GLEAN_20149:0.0798832[&&PRIME ID=8]):0.0845067[&&PRIME ID=12]):0.111927[&&PRIME ID=15], dana_GLEAN_11018:0.175498[&&PRIME ID=1]):0.0693743[&&PRIME ID=13], dvir_GLEAN_03818:0.283802[&&PRIME ID=6]):0.0363877[&&PRIME ID=9], dpse_GLEAN_13408:0.080584[&&PRIME ID=5]):0.0583882[&&PRIME ID=14], dgri_GLEAN_20980:0.0983659[&&PRIME ID=3]):0.055108[&&PRIME ID=11], dwil_GLEAN_17706:0.513006[&&PRIME ID=7]):0.0258456[&&PRIME ID=10], dmoj_GLEAN_21035:0.0258456[&&PRIME ID=4]):0.05[&&PRIME ID=16];	0.600067;	0.183738;	(((((((CG9675-PA, (dere_GLEAN_03260, dyak_GLEAN_20149)), dana_GLEAN_11018), dvir_GLEAN_03818), dpse_GLEAN_13408), dgri_GLEAN_20980), dwil_GLEAN_17706), dmoj_GLEAN_21035);	1.25147;	2.44479;	
# acceptance ratio = 0.534653
# local optimum = -3898.34
# best state -3841.53;	-55.7085;	(((((((CG9675-PA:0.0795999[&&PRIME ID=0], (dere_GLEAN_03260:0.067422[&&PRIME ID=2], dyak_GLEAN_20149:0.0894784[&&PRIME ID=8]):0.0845067[&&PRIME ID=12]):0.108764[&&PRIME ID=15], dana_GLEAN_11018:0.175498[&&PRIME ID=1]):0.0693743[&&PRIME ID=13], dvir_GLEAN_03818:0.358789[&&PRIME ID=6]):0.0263661[&&PRIME ID=9], dpse_GLEAN_13408:0.145389[&&PRIME ID=5]):0.0740321[&&PRIME ID=14], dgri_GLEAN_20980:0.0983659[&&PRIME ID=3]):0.055108[&&PRIME ID=11], dwil_GLEAN_17706:0.513006[&&PRIME ID=7]):0.0258456[&&PRIME ID=10], dmoj_GLEAN_21035:0.0258456[&&PRIME ID=4]):0.05[&&PRIME ID=16];	0.600067;	0.213441;	(((((((CG9675-PA, (dere_GLEAN_03260, dyak_GLEAN_20149)), dana_GLEAN_11018), dvir_GLEAN_03818), dpse_GLEAN_13408), dgri_GLEAN_20980), dwil_GLEAN_17706), dmoj_GLEAN_21035);	1.25147;	2.44479;	
# Total acceptance ratio: 0.534653
# Acc. ratio for Tree_weights3: 33 / 61 = 0.540984
# Acc. ratio for Density2: 9 / 12 = 0.75
#    of which mean: 2 / 3 = 0.666667
#    and CV:        7 / 9 = 0.777778
# Acc. ratio for Tree_Model1: 7 / 19 = 0.368421
#    of which rerooting: 3 / 8 = 0.375
#    and NNI:            3 / 8 = 0.375
#    and SPR:            1 / 3 = 0.333333
# Acc. ratio for DupLoss0: 4 / 8 = 0.5
#    of which birth param: 1 / 4 = 0.25
#    and death param:      3 / 4 = 0.75
# Last iteration root probs: -184.141 -157.354 -132.171 -113.303 -104.063 -96.0997 -89.7277 -84.5221 -80.2564 -76.7037 -73.68 -71.0687 -68.7892 -66.7819 -65.0009 -63.41 -61.9802 -60.6885 -59.5156 -58.4459 -57.4665 -56.5663 
