#  Starting MCMC with the following settings:
#  150 MCMC iterations, saving every 25 iteration.
#  SubstModel5: CacheSubstitutionModel: Substitution likelihood is performed using sequence data:
#    SequenceType Amino acid; Size: 14 sequence, 591 characters
#      partitions, any user-defined partitions of the data
#  and substitution matrix:
#      Markov transition rate matrix, JTT
#      It is a function of the (symmetric) intrinsic rate matrix, R, (20*20, not shown)
#      and, the stationary distribution/base frequencies, Pi, (20*20, not shown)
#      EdgeWeights reads edgeWeights directly from the tree
#      Tree
#  suggestRatio is 0 for 0 parameters
#  Prior:
#      Alpha: The rates are constant over the tree (Mol. clock).
#      The rate probabilities are modeled using a 
#      Uniform distribution in the interval [0, 3].
#      p =  -1.09861
#      The mean  is fixed to 1.5.
#      The variance is fixed to 0.75.
#      The edge rates are fixed to: 
#      edgeRate[0]	1.5
#      .
#      suggestRatio is 0 for 0 parameters
#      Prior:
#          Tree_weights3: The edge rate is modeled using a
#          Gamma distribution, G(1, 1)
#          The edge weights  are estimated during analysis.
#          suggestRatio is 0.764706 for 26 parameters
#          Prior:
#              Density2: Gamma distribution, G(1, 1)
#              Mean and CV is perturbed during MCMC.
#              suggestRatio is 0.25 for 2 parameters
#              Prior:
#                  Tree_Model1: Probability of guest tree Tree is uniform over all rooted trees with 14 leaves,
#                  or perhaps modeled elsewhere
#                  The gene tree  and its root is perturbed (NNI) during MCMC-analysis.
#                  suggestRatio is 0.75 for 3 parameters
#                  Prior:
#                      cyano_DupLossTrans0: Birth, death, transfer params are estimated, estimated, estimated respectively.
#                      suggestRatio is 1 for 3 parameters
#                      Prior:
#                          No prior
#                  
#  
#
# L N SubstModel5.substLike(logfloat);	Tree_weights3.EdgeWeightLike(logfloat);	Tree_weights3.Tree_Lengths(tree);	Density2.mean(float);	Density2.variance(float);	Tree_Model1.Tree(tree); cyano_DupLossTrans0.birthRate(float);	cyano_DupLossTrans0.deathRate(float);	cyano_DupLossTrans0.transferRate(float);	
-16791.7	0	-16700.6;	-90.0413;	((((ANASP_6_PE3397:0.01[&&PRIME ID=0], SYNJB_1_PE2703:0.01[&&PRIME ID=6]):0.01[&&PRIME ID=19], (PROM9_1_PE47:0.01[&&PRIME ID=3], SYNS9_1_PE2155:0.01[&&PRIME ID=9]):0.01[&&PRIME ID=20]):0.01[&&PRIME ID=21], ((GLVIO1_1_PE4071:0.0143247[&&PRIME ID=2], SYNSC_1_PE2461:0.01[&&PRIME ID=10]):0.01[&&PRIME ID=23], SYNE7_1_PE1035:0.01[&&PRIME ID=4]):0.01[&&PRIME ID=24]):0.01[&&PRIME ID=25], ((((ANAVT_4_PE3406:0.01[&&PRIME ID=1], SYNJA_1_PE125:0.01[&&PRIME ID=5]):0.01[&&PRIME ID=14], SYNPX_1_PE2359:0.01[&&PRIME ID=7]):0.01[&&PRIME ID=15], (SYNS3_1_PE2691:0.01[&&PRIME ID=8], SYNY3_4_PE2972:0.01[&&PRIME ID=11]):0.01[&&PRIME ID=16]):0.01[&&PRIME ID=17], (SYNY3_4_PE9:0.01[&&PRIME ID=12], TRIEI_1_PE974:0.01[&&PRIME ID=13]):0.01[&&PRIME ID=18]):0.01[&&PRIME ID=22]):0.01[&&PRIME ID=26];	1;	1;	((((ANASP_6_PE3397, SYNJB_1_PE2703), (PROM9_1_PE47, SYNS9_1_PE2155)), ((GLVIO1_1_PE4071, SYNSC_1_PE2461), SYNE7_1_PE1035)), ((((ANAVT_4_PE3406, SYNJA_1_PE125), SYNPX_1_PE2359), (SYNS3_1_PE2691, SYNY3_4_PE2972)), (SYNY3_4_PE9, TRIEI_1_PE974)));	0.1;	0.1;	0.1;	
-16386.2	25	-16300.2;	-84.8726;	((((ANASP_6_PE3397:0.01[&&PRIME ID=0], SYNJB_1_PE2703:0.0174088[&&PRIME ID=6]):0.0138602[&&PRIME ID=19], (((((ANAVT_4_PE3406:0.01[&&PRIME ID=1], SYNJA_1_PE125:0.01[&&PRIME ID=5]):0.01[&&PRIME ID=14], SYNPX_1_PE2359:0.01[&&PRIME ID=7]):0.0131443[&&PRIME ID=15], (SYNS3_1_PE2691:0.01[&&PRIME ID=8], SYNY3_4_PE2972:0.0194094[&&PRIME ID=11]):0.01[&&PRIME ID=16]):0.01[&&PRIME ID=17], (SYNY3_4_PE9:0.01[&&PRIME ID=12], TRIEI_1_PE974:0.01[&&PRIME ID=13]):0.01[&&PRIME ID=18]):0.0219135[&&PRIME ID=22], ((GLVIO1_1_PE4071:0.0143247[&&PRIME ID=2], SYNSC_1_PE2461:0.01[&&PRIME ID=10]):0.020452[&&PRIME ID=23], SYNE7_1_PE1035:0.01[&&PRIME ID=4]):0.01[&&PRIME ID=24]):0.0170539[&&PRIME ID=25]):0.0161964[&&PRIME ID=21], PROM9_1_PE47:0.02004[&&PRIME ID=3]):0.00654103[&&PRIME ID=20], SYNS9_1_PE2155:0.00654103[&&PRIME ID=9]):0.01[&&PRIME ID=26];	0.816182;	0.944472;	((((ANASP_6_PE3397, SYNJB_1_PE2703), (((((ANAVT_4_PE3406, SYNJA_1_PE125), SYNPX_1_PE2359), (SYNS3_1_PE2691, SYNY3_4_PE2972)), (SYNY3_4_PE9, TRIEI_1_PE974)), ((GLVIO1_1_PE4071, SYNSC_1_PE2461), SYNE7_1_PE1035))), PROM9_1_PE47), SYNS9_1_PE2155);	0.104921;	0.1;	0.1;	
-16094.8	50	-16006.8;	-86.9068;	((((ANASP_6_PE3397:0.01[&&PRIME ID=0], SYNJB_1_PE2703:0.0174088[&&PRIME ID=6]):0.0204645[&&PRIME ID=19], (((((ANAVT_4_PE3406:0.0178444[&&PRIME ID=1], SYNJA_1_PE125:0.01[&&PRIME ID=5]):0.0298352[&&PRIME ID=14], SYNPX_1_PE2359:0.01[&&PRIME ID=7]):0.0131443[&&PRIME ID=15], (SYNS3_1_PE2691:0.01[&&PRIME ID=8], SYNY3_4_PE2972:0.0194094[&&PRIME ID=11]):0.0235695[&&PRIME ID=16]):0.0104048[&&PRIME ID=17], (SYNY3_4_PE9:0.0219863[&&PRIME ID=12], TRIEI_1_PE974:0.01[&&PRIME ID=13]):0.01[&&PRIME ID=18]):0.021143[&&PRIME ID=22], ((GLVIO1_1_PE4071:0.0143247[&&PRIME ID=2], SYNSC_1_PE2461:0.01[&&PRIME ID=10]):0.020452[&&PRIME ID=23], SYNE7_1_PE1035:0.0207487[&&PRIME ID=4]):0.01[&&PRIME ID=24]):0.0170539[&&PRIME ID=25]):0.0190235[&&PRIME ID=21], PROM9_1_PE47:0.02004[&&PRIME ID=3]):0.00749897[&&PRIME ID=20], SYNS9_1_PE2155:0.00654103[&&PRIME ID=9]):0.01[&&PRIME ID=26];	0.816182;	0.944472;	((((ANASP_6_PE3397, SYNJB_1_PE2703), (((((ANAVT_4_PE3406, SYNJA_1_PE125), SYNPX_1_PE2359), (SYNS3_1_PE2691, SYNY3_4_PE2972)), (SYNY3_4_PE9, TRIEI_1_PE974)), ((GLVIO1_1_PE4071, SYNSC_1_PE2461), SYNE7_1_PE1035))), PROM9_1_PE47), SYNS9_1_PE2155);	0.104921;	0.1;	0.1;	
-15805.8	75	-15716.6;	-88.1389;	((((((ANASP_6_PE3397:0.01[&&PRIME ID=0], SYNJB_1_PE2703:0.0182548[&&PRIME ID=6]):0.0201584[&&PRIME ID=19], (PROM9_1_PE47:0.02004[&&PRIME ID=3], SYNS9_1_PE2155:0.0187035[&&PRIME ID=9]):0.0217783[&&PRIME ID=20]):0.01783[&&PRIME ID=21], ((GLVIO1_1_PE4071:0.0143247[&&PRIME ID=2], SYNSC_1_PE2461:0.01[&&PRIME ID=10]):0.020452[&&PRIME ID=23], SYNE7_1_PE1035:0.0207487[&&PRIME ID=4]):0.01[&&PRIME ID=24]):0.0221346[&&PRIME ID=25], SYNS3_1_PE2691:0.01[&&PRIME ID=8]):0.0358148[&&PRIME ID=16], ((ANAVT_4_PE3406:0.0178444[&&PRIME ID=1], SYNJA_1_PE125:0.0123804[&&PRIME ID=5]):0.0440742[&&PRIME ID=14], SYNPX_1_PE2359:0.01[&&PRIME ID=7]):0.0188375[&&PRIME ID=15]):0.00808755[&&PRIME ID=22], (SYNY3_4_PE2972:0.0194094[&&PRIME ID=11], (SYNY3_4_PE9:0.0219863[&&PRIME ID=12], TRIEI_1_PE974:0.01[&&PRIME ID=13]):0.0175682[&&PRIME ID=18]):0.00808755[&&PRIME ID=17]):0.01[&&PRIME ID=26];	0.816182;	1.72543;	((((((ANASP_6_PE3397, SYNJB_1_PE2703), (PROM9_1_PE47, SYNS9_1_PE2155)), ((GLVIO1_1_PE4071, SYNSC_1_PE2461), SYNE7_1_PE1035)), SYNS3_1_PE2691), ((ANAVT_4_PE3406, SYNJA_1_PE125), SYNPX_1_PE2359)), (SYNY3_4_PE2972, (SYNY3_4_PE9, TRIEI_1_PE974)));	0.0795199;	0.125147;	0.1;	
-15331	100	-15242.9;	-87.0154;	((((((ANASP_6_PE3397:0.01[&&PRIME ID=0], SYNJB_1_PE2703:0.0416694[&&PRIME ID=6]):0.0201584[&&PRIME ID=19], (PROM9_1_PE47:0.02004[&&PRIME ID=3], SYNS9_1_PE2155:0.0452597[&&PRIME ID=9]):0.0217783[&&PRIME ID=20]):0.00795926[&&PRIME ID=21], SYNPX_1_PE2359:0.01[&&PRIME ID=7]):0.0221346[&&PRIME ID=25], (ANAVT_4_PE3406:0.0178444[&&PRIME ID=1], SYNJA_1_PE125:0.0123804[&&PRIME ID=5]):0.0440742[&&PRIME ID=14]):0.00769669[&&PRIME ID=15], (((GLVIO1_1_PE4071:0.0143247[&&PRIME ID=2], SYNSC_1_PE2461:0.01[&&PRIME ID=10]):0.020452[&&PRIME ID=23], SYNE7_1_PE1035:0.0207487[&&PRIME ID=4]):0.01[&&PRIME ID=24], SYNS3_1_PE2691:0.0282472[&&PRIME ID=8]):0.0358148[&&PRIME ID=16]):0.0136676[&&PRIME ID=22], (SYNY3_4_PE2972:0.0194094[&&PRIME ID=11], (SYNY3_4_PE9:0.0281627[&&PRIME ID=12], TRIEI_1_PE974:0.0110326[&&PRIME ID=13]):0.0175682[&&PRIME ID=18]):0.00808755[&&PRIME ID=17]):0.01[&&PRIME ID=26];	0.324568;	0.272857;	((((((ANASP_6_PE3397, SYNJB_1_PE2703), (PROM9_1_PE47, SYNS9_1_PE2155)), SYNPX_1_PE2359), (ANAVT_4_PE3406, SYNJA_1_PE125)), (((GLVIO1_1_PE4071, SYNSC_1_PE2461), SYNE7_1_PE1035), SYNS3_1_PE2691)), (SYNY3_4_PE2972, (SYNY3_4_PE9, TRIEI_1_PE974)));	0.100826;	0.125147;	0.1;	
-14801	125	-14694.5;	-105.448;	((((ANASP_6_PE3397:0.01[&&PRIME ID=0], SYNJB_1_PE2703:0.0416694[&&PRIME ID=6]):0.0201584[&&PRIME ID=19], (((ANAVT_4_PE3406:0.0178444[&&PRIME ID=1], ((((GLVIO1_1_PE4071:0.0143247[&&PRIME ID=2], SYNE7_1_PE1035:0.0207487[&&PRIME ID=4]):0.0246687[&&PRIME ID=23], SYNSC_1_PE2461:0.0166938[&&PRIME ID=10]):0.01[&&PRIME ID=24], SYNS3_1_PE2691:0.0449648[&&PRIME ID=8]):0.0358148[&&PRIME ID=16], (SYNY3_4_PE2972:0.0219668[&&PRIME ID=11], (SYNY3_4_PE9:0.0281627[&&PRIME ID=12], TRIEI_1_PE974:0.0240373[&&PRIME ID=13]):0.0175682[&&PRIME ID=18]):0.0497515[&&PRIME ID=17]):0.0130999[&&PRIME ID=22]):0.0845985[&&PRIME ID=15], SYNJA_1_PE125:0.02223[&&PRIME ID=5]):0.0256836[&&PRIME ID=14], SYNPX_1_PE2359:0.01[&&PRIME ID=7]):0.0123903[&&PRIME ID=25]):0.0194313[&&PRIME ID=21], SYNS9_1_PE2155:0.0452597[&&PRIME ID=9]):0.0147671[&&PRIME ID=20], PROM9_1_PE47:0.0174649[&&PRIME ID=3]):0.01[&&PRIME ID=26];	0.324568;	0.225818;	((((ANASP_6_PE3397, SYNJB_1_PE2703), (((ANAVT_4_PE3406, ((((GLVIO1_1_PE4071, SYNE7_1_PE1035), SYNSC_1_PE2461), SYNS3_1_PE2691), (SYNY3_4_PE2972, (SYNY3_4_PE9, TRIEI_1_PE974)))), SYNJA_1_PE125), SYNPX_1_PE2359)), SYNS9_1_PE2155), PROM9_1_PE47);	0.321934;	0.125147;	0.1;	
# acceptance ratio = 0.602649
# local optimum = -14565.7
# best state -14459.5;	-105.071;	((((ANASP_6_PE3397:0.0144058[&&PRIME ID=0], SYNJB_1_PE2703:0.0416694[&&PRIME ID=6]):0.0201584[&&PRIME ID=19], (((ANAVT_4_PE3406:0.0178444[&&PRIME ID=1], ((((GLVIO1_1_PE4071:0.0209127[&&PRIME ID=2], SYNE7_1_PE1035:0.0207487[&&PRIME ID=4]):0.0246687[&&PRIME ID=23], SYNSC_1_PE2461:0.0166938[&&PRIME ID=10]):0.01[&&PRIME ID=24], SYNS3_1_PE2691:0.210098[&&PRIME ID=8]):0.0398257[&&PRIME ID=16], (SYNY3_4_PE2972:0.0219668[&&PRIME ID=11], (SYNY3_4_PE9:0.0281627[&&PRIME ID=12], TRIEI_1_PE974:0.0240373[&&PRIME ID=13]):0.0175682[&&PRIME ID=18]):0.0497515[&&PRIME ID=17]):0.0130999[&&PRIME ID=22]):0.0950707[&&PRIME ID=15], SYNJA_1_PE125:0.02223[&&PRIME ID=5]):0.0470706[&&PRIME ID=14], SYNPX_1_PE2359:0.01[&&PRIME ID=7]):0.0123903[&&PRIME ID=25]):0.0194313[&&PRIME ID=21], SYNS9_1_PE2155:0.0452597[&&PRIME ID=9]):0.0200561[&&PRIME ID=20], PROM9_1_PE47:0.0174649[&&PRIME ID=3]):0.01[&&PRIME ID=26];	0.324568;	0.210002;	((((ANASP_6_PE3397, SYNJB_1_PE2703), (((ANAVT_4_PE3406, ((((GLVIO1_1_PE4071, SYNE7_1_PE1035), SYNSC_1_PE2461), SYNS3_1_PE2691), (SYNY3_4_PE2972, (SYNY3_4_PE9, TRIEI_1_PE974)))), SYNJA_1_PE125), SYNPX_1_PE2359)), SYNS9_1_PE2155), PROM9_1_PE47);	0.321934;	0.125147;	0.157782;	
# Total acceptance ratio: 0.602649
# Acc. ratio for Tree_weights3: 65 / 109 = 0.59633
# Acc. ratio for Density2: 9 / 11 = 0.818182
#    of which mean: 3 / 4 = 0.75
#    and CV:        6 / 7 = 0.857143
# Acc. ratio for Tree_Model1: 9 / 18 = 0.5
#    of which rerooting: 4 / 7 = 0.571429
#    and NNI:            3 / 7 = 0.428571
#    and SPR:            2 / 4 = 0.5
# Acc. ratio for cyano_DupLossTrans0: 7 / 12 = 0.583333
#    of which birth param: 5 / 7 = 0.714286
#    and death param:      1 / 4 = 0.25
#    and transfer param:   1 / 1 = 1
#
