Tree G0:
                   +--- 23, L_5_2
              +--- 24
              |    +--- 22, L_4_3
         +--- 54
         |    |         +--- 51, L_5_3
         |    |    +--- 52
         |    |    |    +--- 50, L_4_4
         |    +--- 53
         |         |              +--- 46, L_3_9
         |         |         +--- 47
         |         |         |    +--- 45, L_2_8
         |         |    +--- 48
         |         |    |    |         +--- 42, L_3_8
         |         |    |    |    +--- 43
         |         |    |    |    |    +--- 41, L_2_7
         |         |    |    +--- 44
         |         |    |         |    +--- 39, L_3_7
         |         |    |         +--- 40
         |         |    |              +--- 38, L_2_6
         |         +--- 49
         |              |              +--- 34, L_3_6
         |              |         +--- 35
         |              |         |    +--- 33, L_3_5
         |              |    +--- 36
         |              |    |    +--- 32, L_2_5
         |              +--- 37
         |                   |         +--- 29, L_3_4
         |                   |    +--- 30
         |                   |    |    +--- 28, L_2_4
         |                   +--- 31
         |                        |    +--- 26, L_3_3
         |                        +--- 27
         |                             +--- 25, L_2_3
    +--- 55
    |    |              +--- 18, L_5_1
    |    |         +--- 19
    |    |         |    +--- 17, L_4_2
    |    |    +--- 20
    |    |    |    |    +--- 15, L_4_1
    |    |    |    +--- 16
    |    |    |         |    +--- 13, L_5_0
    |    |    |         +--- 14
    |    |    |              +--- 12, L_4_0
    |    +--- 21
    |         |    +--- 10, L_3_2
    |         +--- 11
    |              |    +--- 8, L_2_2
    |              +--- 9
    |                   +--- 7, L_2_1
+--- 56
    |    +--- 5, L_6_0
    +--- 6
         |         +--- 2, L_3_1
         |    +--- 3
         |    |    +--- 1, L_3_0
         +--- 4
              +--- 0, L_2_0
